<?xml version="1.0" standalone="no"?>
<!DOCTYPE svg PUBLIC "-//W3C//DTD SVG 1.1//EN" "http://www.w3.org/Graphics/SVG/1.1/DTD/svg11.dtd">

<svg width="800" height="600" version="1.1" xmlns="http://www.w3.org/2000/svg">
	<ellipse stroke="black" stroke-width="1" fill="none" cx="46.5" cy="90.5" rx="30" ry="30"/>
	<text x="41.5" y="96.5" font-family="Times New Roman" font-size="20">0</text>
	<ellipse stroke="black" stroke-width="1" fill="none" cx="164.5" cy="142.5" rx="30" ry="30"/>
	<text x="159.5" y="148.5" font-family="Times New Roman" font-size="20">1</text>
	<ellipse stroke="black" stroke-width="1" fill="none" cx="277.5" cy="142.5" rx="30" ry="30"/>
	<text x="272.5" y="148.5" font-family="Times New Roman" font-size="20">2</text>
	<ellipse stroke="black" stroke-width="1" fill="none" cx="398.5" cy="142.5" rx="30" ry="30"/>
	<text x="393.5" y="148.5" font-family="Times New Roman" font-size="20">3</text>
	<ellipse stroke="black" stroke-width="1" fill="none" cx="398.5" cy="142.5" rx="24" ry="24"/>
	<ellipse stroke="black" stroke-width="1" fill="none" cx="500.5" cy="142.5" rx="30" ry="30"/>
	<text x="495.5" y="148.5" font-family="Times New Roman" font-size="20">4</text>
	<ellipse stroke="black" stroke-width="1" fill="none" cx="65.5" cy="285.5" rx="30" ry="30"/>
	<text x="60.5" y="291.5" font-family="Times New Roman" font-size="20">6</text>
	<ellipse stroke="black" stroke-width="1" fill="none" cx="65.5" cy="285.5" rx="24" ry="24"/>
	<ellipse stroke="black" stroke-width="1" fill="none" cx="164.5" cy="250.5" rx="30" ry="30"/>
	<text x="159.5" y="256.5" font-family="Times New Roman" font-size="20">7</text>
	<ellipse stroke="black" stroke-width="1" fill="none" cx="164.5" cy="250.5" rx="24" ry="24"/>
	<ellipse stroke="black" stroke-width="1" fill="none" cx="277.5" cy="239.5" rx="30" ry="30"/>
	<text x="272.5" y="245.5" font-family="Times New Roman" font-size="20">8</text>
	<ellipse stroke="black" stroke-width="1" fill="none" cx="277.5" cy="239.5" rx="24" ry="24"/>
	<ellipse stroke="black" stroke-width="1" fill="none" cx="398.5" cy="239.5" rx="30" ry="30"/>
	<text x="393.5" y="245.5" font-family="Times New Roman" font-size="20">9</text>
	<ellipse stroke="black" stroke-width="1" fill="none" cx="398.5" cy="239.5" rx="24" ry="24"/>
	<ellipse stroke="black" stroke-width="1" fill="none" cx="500.5" cy="239.5" rx="30" ry="30"/>
	<text x="490.5" y="245.5" font-family="Times New Roman" font-size="20">10</text>
	<ellipse stroke="black" stroke-width="1" fill="none" cx="500.5" cy="239.5" rx="24" ry="24"/>
	<ellipse stroke="black" stroke-width="1" fill="none" cx="626.5" cy="294.5" rx="30" ry="30"/>
	<text x="616.5" y="300.5" font-family="Times New Roman" font-size="20">11</text>
	<ellipse stroke="black" stroke-width="1" fill="none" cx="626.5" cy="294.5" rx="24" ry="24"/>
	<ellipse stroke="black" stroke-width="1" fill="none" cx="653.5" cy="90.5" rx="30" ry="30"/>
	<text x="648.5" y="96.5" font-family="Times New Roman" font-size="20">5</text>
	<polygon stroke="black" stroke-width="1" points="73.953,102.598 137.047,130.402"/>
	<polygon fill="black" stroke-width="1" points="137.047,130.402 131.743,122.601 127.71,131.752"/>
	<text x="91.5" y="137.5" font-family="Times New Roman" font-size="20">a</text>
	<polygon stroke="black" stroke-width="1" points="194.5,142.5 247.5,142.5"/>
	<polygon fill="black" stroke-width="1" points="247.5,142.5 239.5,137.5 239.5,147.5"/>
	<text x="216.5" y="133.5" font-family="Times New Roman" font-size="20">a</text>
	<polygon stroke="black" stroke-width="1" points="307.5,142.5 368.5,142.5"/>
	<polygon fill="black" stroke-width="1" points="368.5,142.5 360.5,137.5 360.5,147.5"/>
	<text x="333.5" y="133.5" font-family="Times New Roman" font-size="20">a</text>
	<polygon stroke="black" stroke-width="1" points="428.5,142.5 470.5,142.5"/>
	<polygon fill="black" stroke-width="1" points="470.5,142.5 462.5,137.5 462.5,147.5"/>
	<text x="445.5" y="133.5" font-family="Times New Roman" font-size="20">a</text>
	<path stroke="black" stroke-width="1" fill="none" d="M 45.967,262.796 A 149.671,149.671 0 0 1 31.718,116.548"/>
	<polygon fill="black" stroke-width="1" points="45.967,262.796 45.481,253.375 37.285,259.105"/>
	<text x="3.5" y="198.5" font-family="Times New Roman" font-size="20">b</text>
	<path stroke="black" stroke-width="1" fill="none" d="M 139.751,234.166 A 56.881,56.881 0 0 1 139.751,158.834"/>
	<polygon fill="black" stroke-width="1" points="139.751,234.166 138.2,224.86 130.706,231.482"/>
	<text x="110.5" y="202.5" font-family="Times New Roman" font-size="20">b</text>
	<path stroke="black" stroke-width="1" fill="none" d="M 255.111,220.127 A 53.419,53.419 0 0 1 255.111,161.873"/>
	<polygon fill="black" stroke-width="1" points="255.111,220.127 254.94,210.694 246.558,216.147"/>
	<text x="231.5" y="196.5" font-family="Times New Roman" font-size="20">b</text>
	<path stroke="black" stroke-width="1" fill="none" d="M 375.634,220.709 A 52.734,52.734 0 0 1 375.634,161.291"/>
	<polygon fill="black" stroke-width="1" points="375.634,220.709 375.258,211.282 366.996,216.916"/>
	<text x="351.5" y="197.5" font-family="Times New Roman" font-size="20">b</text>
	<path stroke="black" stroke-width="1" fill="none" d="M 481.647,216.564 A 60.179,60.179 0 0 1 481.647,165.436"/>
	<polygon fill="black" stroke-width="1" points="481.647,216.564 482.775,207.197 473.722,211.445"/>
	<text x="460.5" y="197.5" font-family="Times New Roman" font-size="20">b</text>
	<polygon stroke="black" stroke-width="1" points="93.784,275.5 136.216,260.5"/>
	<polygon fill="black" stroke-width="1" points="136.216,260.5 127.006,258.452 130.34,267.88"/>
	<text x="101.5" y="258.5" font-family="Times New Roman" font-size="20">a</text>
	<polygon stroke="black" stroke-width="1" points="194.359,247.593 247.641,242.407"/>
	<polygon fill="black" stroke-width="1" points="247.641,242.407 239.194,238.205 240.163,248.158"/>
	<text x="218.5" y="266.5" font-family="Times New Roman" font-size="20">a</text>
	<polygon stroke="black" stroke-width="1" points="307.5,239.5 368.5,239.5"/>
	<polygon fill="black" stroke-width="1" points="368.5,239.5 360.5,234.5 360.5,244.5"/>
	<text x="333.5" y="230.5" font-family="Times New Roman" font-size="20">a</text>
	<polygon stroke="black" stroke-width="1" points="428.5,239.5 470.5,239.5"/>
	<polygon fill="black" stroke-width="1" points="470.5,239.5 462.5,234.5 462.5,244.5"/>
	<text x="445.5" y="260.5" font-family="Times New Roman" font-size="20">a</text>
	<polygon stroke="black" stroke-width="1" points="527.995,251.502 599.005,282.498"/>
	<polygon fill="black" stroke-width="1" points="599.005,282.498 593.674,274.715 589.673,283.88"/>
	<text x="549.5" y="288.5" font-family="Times New Roman" font-size="20">a</text>
	<path stroke="black" stroke-width="1" fill="none" d="M 62.35,115.935 A 190.946,190.946 0 0 1 76.142,257.484"/>
	<polygon fill="black" stroke-width="1" points="62.35,115.935 61.598,125.338 70.473,120.732"/>
	<text x="89.5" y="190.5" font-family="Times New Roman" font-size="20">b</text>
	<path stroke="black" stroke-width="1" fill="none" d="M 188.879,159.392 A 57.371,57.371 0 0 1 188.879,233.608"/>
	<polygon fill="black" stroke-width="1" points="188.879,159.392 190.24,168.728 197.867,162.26"/>
	<text x="207.5" y="202.5" font-family="Times New Roman" font-size="20">b</text>
	<path stroke="black" stroke-width="1" fill="none" d="M 302.07,158.942 A 50.67,50.67 0 0 1 302.07,223.058"/>
	<polygon fill="black" stroke-width="1" points="302.07,158.942 303.259,168.301 311.003,161.974"/>
	<text x="318.5" y="197.5" font-family="Times New Roman" font-size="20">b</text>
	<path stroke="black" stroke-width="1" fill="none" d="M 418.338,164.558 A 57.966,57.966 0 0 1 418.338,217.442"/>
	<polygon fill="black" stroke-width="1" points="418.338,164.558 417.538,173.958 426.437,169.396"/>
	<text x="429.5" y="196.5" font-family="Times New Roman" font-size="20">b</text>
	<path stroke="black" stroke-width="1" fill="none" d="M 525.001,159.046 A 50.742,50.742 0 0 1 525.001,222.954"/>
	<polygon fill="black" stroke-width="1" points="525.001,159.046 526.155,168.41 533.923,162.112"/>
	<text x="541.5" y="197.5" font-family="Times New Roman" font-size="20">b</text>
	<polygon stroke="black" stroke-width="1" points="528.904,132.846 625.096,100.154"/>
	<polygon fill="black" stroke-width="1" points="625.096,100.154 615.912,97.994 619.13,107.462"/>
	<text x="564.5" y="107.5" font-family="Times New Roman" font-size="20">a</text>
	<path stroke="black" stroke-width="1" fill="none" d="M 619.258,265.407 A 242.966,242.966 0 0 1 638.939,116.708"/>
	<polygon fill="black" stroke-width="1" points="619.258,265.407 622.726,256.633 612.892,258.445"/>
	<text x="600.5" y="194.5" font-family="Times New Roman" font-size="20">b</text>
	<path stroke="black" stroke-width="1" fill="none" d="M 668.108,116.648 A 152.71,152.71 0 0 1 647.407,273.053"/>
	<polygon fill="black" stroke-width="1" points="668.108,116.648 666.723,125.98 675.889,121.982"/>
	<text x="686.5" y="205.5" font-family="Times New Roman" font-size="20">b</text>
	<path stroke="black" stroke-width="1" fill="none" d="M 74.378,79.423 A 784.336,784.336 0 0 1 625.622,79.423"/>
	<polygon fill="black" stroke-width="1" points="74.378,79.423 83.625,81.293 80.111,71.931"/>
	<text x="345.5" y="20.5" font-family="Times New Roman" font-size="20">a</text>
	<path stroke="black" stroke-width="1" fill="none" d="M 602.096,311.939 A 451.949,451.949 0 0 1 89.332,303.712"/>
	<polygon fill="black" stroke-width="1" points="89.332,303.712 92.944,312.428 98.749,304.285"/>
	<text x="339.5" y="408.5" font-family="Times New Roman" font-size="20">a</text>
	<path stroke="black" stroke-width="1" fill="none" d="M 49.48,60.766 A 22.5,22.5 0 1 1 71.913,74.779"/>
	<text x="87.5" y="24.5" font-family="Times New Roman" font-size="20">cde</text>
	<polygon fill="black" stroke-width="1" points="71.913,74.779 81.204,76.416 77.456,67.145"/>
	<path stroke="black" stroke-width="1" fill="none" d="M 160.947,112.829 A 22.5,22.5 0 1 1 185.89,121.632"/>
	<text x="190.5" y="69.5" font-family="Times New Roman" font-size="20">cde</text>
	<polygon fill="black" stroke-width="1" points="185.89,121.632 195.314,121.212 189.642,112.976"/>
	<path stroke="black" stroke-width="1" fill="none" d="M 264.275,115.703 A 22.5,22.5 0 1 1 290.725,115.703"/>
	<text x="263.5" y="66.5" font-family="Times New Roman" font-size="20">cde</text>
	<polygon fill="black" stroke-width="1" points="290.725,115.703 299.473,112.17 291.382,106.292"/>
	<path stroke="black" stroke-width="1" fill="none" d="M 390.787,113.63 A 22.5,22.5 0 1 1 416.724,118.817"/>
	<text x="408.5" y="65.5" font-family="Times New Roman" font-size="20">cde</text>
	<polygon fill="black" stroke-width="1" points="416.724,118.817 425.994,117.068 419.214,109.718"/>
	<path stroke="black" stroke-width="1" fill="none" d="M 508.193,113.624 A 22.5,22.5 0 1 1 528.099,131.042"/>
	<text x="550.5" y="82.5" font-family="Times New Roman" font-size="20">cde</text>
	<polygon fill="black" stroke-width="1" points="528.099,131.042 537.009,134.143 534.791,124.392"/>
	<path stroke="black" stroke-width="1" fill="none" d="M 654.693,60.641 A 22.5,22.5 0 1 1 677.926,73.285"/>
	<text x="690.5" y="22.5" font-family="Times New Roman" font-size="20">cde</text>
	<polygon fill="black" stroke-width="1" points="677.926,73.285 687.298,74.363 683.002,65.333"/>
	<path stroke="black" stroke-width="1" fill="none" d="M 651.568,278.234 A 22.5,22.5 0 1 1 654.659,304.504"/>
	<text x="700.5" y="291.5" font-family="Times New Roman" font-size="20">cde</text>
	<polygon fill="black" stroke-width="1" points="654.659,304.504 659.19,312.778 664.082,304.057"/>
	<path stroke="black" stroke-width="1" fill="none" d="M 513.725,266.297 A 22.5,22.5 0 1 1 487.275,266.297"/>
	<text x="486.5" y="328.5" font-family="Times New Roman" font-size="20">cde</text>
	<polygon fill="black" stroke-width="1" points="487.275,266.297 478.527,269.83 486.618,275.708"/>
	<path stroke="black" stroke-width="1" fill="none" d="M 400.1,269.34 A 22.5,22.5 0 1 1 375.788,258.921"/>
	<text x="339.5" y="322.5" font-family="Times New Roman" font-size="20">cde</text>
	<polygon fill="black" stroke-width="1" points="375.788,258.921 366.356,258.723 371.477,267.312"/>
	<path stroke="black" stroke-width="1" fill="none" d="M 290.725,266.297 A 22.5,22.5 0 1 1 264.275,266.297"/>
	<text x="263.5" y="328.5" font-family="Times New Roman" font-size="20">cde</text>
	<polygon fill="black" stroke-width="1" points="264.275,266.297 255.527,269.83 263.618,275.708"/>
	<path stroke="black" stroke-width="1" fill="none" d="M 177.725,277.297 A 22.5,22.5 0 1 1 151.275,277.297"/>
	<text x="150.5" y="339.5" font-family="Times New Roman" font-size="20">cde</text>
	<polygon fill="black" stroke-width="1" points="151.275,277.297 142.527,280.83 150.618,286.708"/>
	<path stroke="black" stroke-width="1" fill="none" d="M 78.725,312.297 A 22.5,22.5 0 1 1 52.275,312.297"/>
	<text x="51.5" y="374.5" font-family="Times New Roman" font-size="20">cde</text>
	<polygon fill="black" stroke-width="1" points="52.275,312.297 43.527,315.83 51.618,321.708"/>
</svg>
