<?xml version="1.0" standalone="no"?>
<!DOCTYPE svg PUBLIC "-//W3C//DTD SVG 1.1//EN" "http://www.w3.org/Graphics/SVG/1.1/DTD/svg11.dtd">

<svg width="800" height="600" version="1.1" xmlns="http://www.w3.org/2000/svg">
	<ellipse stroke="black" stroke-width="1" fill="none" cx="47.5" cy="45.5" rx="30" ry="30"/>
	<text x="42.5" y="51.5" font-family="Times New Roman" font-size="20">0</text>
	<ellipse stroke="black" stroke-width="1" fill="none" cx="47.5" cy="45.5" rx="24" ry="24"/>
	<ellipse stroke="black" stroke-width="1" fill="none" cx="217.5" cy="106.5" rx="30" ry="30"/>
	<text x="212.5" y="112.5" font-family="Times New Roman" font-size="20">1</text>
	<ellipse stroke="black" stroke-width="1" fill="none" cx="393.5" cy="106.5" rx="30" ry="30"/>
	<text x="388.5" y="112.5" font-family="Times New Roman" font-size="20">2</text>
	<ellipse stroke="black" stroke-width="1" fill="none" cx="556.5" cy="45.5" rx="30" ry="30"/>
	<text x="551.5" y="51.5" font-family="Times New Roman" font-size="20">3</text>
	<ellipse stroke="black" stroke-width="1" fill="none" cx="47.5" cy="174.5" rx="30" ry="30"/>
	<text x="42.5" y="180.5" font-family="Times New Roman" font-size="20">4</text>
	<ellipse stroke="black" stroke-width="1" fill="none" cx="217.5" cy="227.5" rx="30" ry="30"/>
	<text x="212.5" y="233.5" font-family="Times New Roman" font-size="20">5</text>
	<ellipse stroke="black" stroke-width="1" fill="none" cx="217.5" cy="227.5" rx="24" ry="24"/>
	<ellipse stroke="black" stroke-width="1" fill="none" cx="393.5" cy="227.5" rx="30" ry="30"/>
	<text x="388.5" y="233.5" font-family="Times New Roman" font-size="20">6</text>
	<ellipse stroke="black" stroke-width="1" fill="none" cx="556.5" cy="174.5" rx="30" ry="30"/>
	<text x="551.5" y="180.5" font-family="Times New Roman" font-size="20">7</text>
	<ellipse stroke="black" stroke-width="1" fill="none" cx="47.5" cy="308.5" rx="30" ry="30"/>
	<text x="42.5" y="314.5" font-family="Times New Roman" font-size="20">8</text>
	<ellipse stroke="black" stroke-width="1" fill="none" cx="217.5" cy="373.5" rx="30" ry="30"/>
	<text x="212.5" y="379.5" font-family="Times New Roman" font-size="20">9</text>
	<ellipse stroke="black" stroke-width="1" fill="none" cx="393.5" cy="373.5" rx="30" ry="30"/>
	<text x="383.5" y="379.5" font-family="Times New Roman" font-size="20">10</text>
	<ellipse stroke="black" stroke-width="1" fill="none" cx="393.5" cy="373.5" rx="24" ry="24"/>
	<ellipse stroke="black" stroke-width="1" fill="none" cx="556.5" cy="308.5" rx="30" ry="30"/>
	<text x="546.5" y="314.5" font-family="Times New Roman" font-size="20">11</text>
	<ellipse stroke="black" stroke-width="1" fill="none" cx="47.5" cy="453.5" rx="30" ry="30"/>
	<text x="37.5" y="459.5" font-family="Times New Roman" font-size="20">12</text>
	<ellipse stroke="black" stroke-width="1" fill="none" cx="217.5" cy="481.5" rx="30" ry="30"/>
	<text x="207.5" y="487.5" font-family="Times New Roman" font-size="20">13</text>
	<ellipse stroke="black" stroke-width="1" fill="none" cx="400.5" cy="481.5" rx="30" ry="30"/>
	<text x="390.5" y="487.5" font-family="Times New Roman" font-size="20">14</text>
	<ellipse stroke="black" stroke-width="1" fill="none" cx="556.5" cy="453.5" rx="30" ry="30"/>
	<text x="546.5" y="459.5" font-family="Times New Roman" font-size="20">15</text>
	<ellipse stroke="black" stroke-width="1" fill="none" cx="556.5" cy="453.5" rx="24" ry="24"/>
	<ellipse stroke="black" stroke-width="1" fill="none" cx="284.5" cy="574.5" rx="30" ry="30"/>
	<text x="279.5" y="580.5" font-family="Times New Roman" font-size="20">p</text>
	<polygon stroke="black" stroke-width="1" points="75.737,55.632 189.263,96.368"/>
	<polygon fill="black" stroke-width="1" points="189.263,96.368 183.422,88.96 180.044,98.372"/>
	<text x="119.5" y="97.5" font-family="Times New Roman" font-size="20">a</text>
	<polygon stroke="black" stroke-width="1" points="247.5,106.5 363.5,106.5"/>
	<polygon fill="black" stroke-width="1" points="363.5,106.5 355.5,101.5 355.5,111.5"/>
	<text x="301.5" y="97.5" font-family="Times New Roman" font-size="20">a</text>
	<polygon stroke="black" stroke-width="1" points="421.597,95.985 528.403,56.015"/>
	<polygon fill="black" stroke-width="1" points="528.403,56.015 519.158,54.136 522.663,63.502"/>
	<text x="479.5" y="97.5" font-family="Times New Roman" font-size="20">a</text>
	<polygon stroke="black" stroke-width="1" points="76.14,183.429 188.86,218.571"/>
	<polygon fill="black" stroke-width="1" points="188.86,218.571 182.71,211.416 179.734,220.963"/>
	<text x="119.5" y="222.5" font-family="Times New Roman" font-size="20">a</text>
	<polygon stroke="black" stroke-width="1" points="247.5,227.5 363.5,227.5"/>
	<polygon fill="black" stroke-width="1" points="363.5,227.5 355.5,222.5 355.5,232.5"/>
	<text x="301.5" y="248.5" font-family="Times New Roman" font-size="20">a</text>
	<polygon stroke="black" stroke-width="1" points="422.03,218.223 527.97,183.777"/>
	<polygon fill="black" stroke-width="1" points="527.97,183.777 518.816,181.495 521.908,191.005"/>
	<text x="478.5" y="222.5" font-family="Times New Roman" font-size="20">a</text>
	<polygon stroke="black" stroke-width="1" points="75.522,319.214 189.478,362.786"/>
	<polygon fill="black" stroke-width="1" points="189.478,362.786 183.792,355.259 180.22,364.599"/>
	<text x="119.5" y="362.5" font-family="Times New Roman" font-size="20">a</text>
	<polygon stroke="black" stroke-width="1" points="247.5,373.5 363.5,373.5"/>
	<polygon fill="black" stroke-width="1" points="363.5,373.5 355.5,368.5 355.5,378.5"/>
	<text x="301.5" y="364.5" font-family="Times New Roman" font-size="20">a</text>
	<polygon stroke="black" stroke-width="1" points="421.366,362.388 528.634,319.612"/>
	<polygon fill="black" stroke-width="1" points="528.634,319.612 519.351,317.931 523.055,327.22"/>
	<text x="479.5" y="362.5" font-family="Times New Roman" font-size="20">a</text>
	<polygon stroke="black" stroke-width="1" points="47.5,75.5 47.5,144.5"/>
	<polygon fill="black" stroke-width="1" points="47.5,144.5 52.5,136.5 42.5,136.5"/>
	<text x="32.5" y="116.5" font-family="Times New Roman" font-size="20">b</text>
	<polygon stroke="black" stroke-width="1" points="47.5,204.5 47.5,278.5"/>
	<polygon fill="black" stroke-width="1" points="47.5,278.5 52.5,270.5 42.5,270.5"/>
	<text x="32.5" y="247.5" font-family="Times New Roman" font-size="20">b</text>
	<polygon stroke="black" stroke-width="1" points="47.5,338.5 47.5,423.5"/>
	<polygon fill="black" stroke-width="1" points="47.5,423.5 52.5,415.5 42.5,415.5"/>
	<text x="32.5" y="387.5" font-family="Times New Roman" font-size="20">b</text>
	<polygon stroke="black" stroke-width="1" points="217.5,136.5 217.5,197.5"/>
	<polygon fill="black" stroke-width="1" points="217.5,197.5 222.5,189.5 212.5,189.5"/>
	<text x="202.5" y="173.5" font-family="Times New Roman" font-size="20">b</text>
	<polygon stroke="black" stroke-width="1" points="217.5,257.5 217.5,343.5"/>
	<polygon fill="black" stroke-width="1" points="217.5,343.5 222.5,335.5 212.5,335.5"/>
	<text x="202.5" y="306.5" font-family="Times New Roman" font-size="20">b</text>
	<polygon stroke="black" stroke-width="1" points="217.5,403.5 217.5,451.5"/>
	<polygon fill="black" stroke-width="1" points="217.5,451.5 222.5,443.5 212.5,443.5"/>
	<text x="222.5" y="433.5" font-family="Times New Roman" font-size="20">b</text>
	<polygon stroke="black" stroke-width="1" points="77.101,458.375 187.899,476.625"/>
	<polygon fill="black" stroke-width="1" points="187.899,476.625 180.818,470.391 179.193,480.258"/>
	<text x="132.5" y="457.5" font-family="Times New Roman" font-size="20">a</text>
	<path stroke="black" stroke-width="1" fill="none" d="M 254.622,571.925 A 316.803,316.803 0 0 1 67.108,476.19"/>
	<polygon fill="black" stroke-width="1" points="254.622,571.925 247.358,565.906 246.028,575.817"/>
	<text x="137.5" y="561.5" font-family="Times New Roman" font-size="20">b</text>
	<polygon stroke="black" stroke-width="1" points="235.036,505.841 266.964,550.159"/>
	<polygon fill="black" stroke-width="1" points="266.964,550.159 266.345,540.745 258.231,546.591"/>
	<text x="256.5" y="520.5" font-family="Times New Roman" font-size="20">b</text>
	<polygon stroke="black" stroke-width="1" points="377.094,500.265 307.906,555.735"/>
	<polygon fill="black" stroke-width="1" points="307.906,555.735 317.276,554.631 311.02,546.829"/>
	<text x="347.5" y="548.5" font-family="Times New Roman" font-size="20">b</text>
	<path stroke="black" stroke-width="1" fill="none" d="M 532.621,471.655 A 585.379,585.379 0 0 1 313.973,568.921"/>
	<polygon fill="black" stroke-width="1" points="313.973,568.921 322.849,572.119 320.737,562.344"/>
	<text x="433.5" y="552.5" font-family="Times New Roman" font-size="20">b</text>
	<polygon stroke="black" stroke-width="1" points="393.5,136.5 393.5,197.5"/>
	<polygon fill="black" stroke-width="1" points="393.5,197.5 398.5,189.5 388.5,189.5"/>
	<text x="378.5" y="173.5" font-family="Times New Roman" font-size="20">b</text>
	<polygon stroke="black" stroke-width="1" points="556.5,75.5 556.5,144.5"/>
	<polygon fill="black" stroke-width="1" points="556.5,144.5 561.5,136.5 551.5,136.5"/>
	<text x="541.5" y="116.5" font-family="Times New Roman" font-size="20">b</text>
	<polygon stroke="black" stroke-width="1" points="393.5,257.5 393.5,343.5"/>
	<polygon fill="black" stroke-width="1" points="393.5,343.5 398.5,335.5 388.5,335.5"/>
	<text x="378.5" y="306.5" font-family="Times New Roman" font-size="20">b</text>
	<polygon stroke="black" stroke-width="1" points="556.5,204.5 556.5,278.5"/>
	<polygon fill="black" stroke-width="1" points="556.5,278.5 561.5,270.5 551.5,270.5"/>
	<text x="541.5" y="247.5" font-family="Times New Roman" font-size="20">b</text>
	<polygon stroke="black" stroke-width="1" points="395.44,403.437 398.56,451.563"/>
	<polygon fill="black" stroke-width="1" points="398.56,451.563 403.032,443.256 393.053,443.903"/>
	<text x="381.5" y="433.5" font-family="Times New Roman" font-size="20">b</text>
	<polygon stroke="black" stroke-width="1" points="556.5,338.5 556.5,423.5"/>
	<polygon fill="black" stroke-width="1" points="556.5,423.5 561.5,415.5 551.5,415.5"/>
	<text x="541.5" y="387.5" font-family="Times New Roman" font-size="20">b</text>
	<path stroke="black" stroke-width="1" fill="none" d="M 77.264,41.743 A 1913.5,1913.5 0 0 1 526.736,41.743"/>
	<polygon fill="black" stroke-width="1" points="77.264,41.743 85.795,45.769 84.621,35.838"/>
	<text x="297.5" y="19.5" font-family="Times New Roman" font-size="20">a</text>
	<path stroke="black" stroke-width="1" fill="none" d="M 76.72,167.707 A 1059.52,1059.52 0 0 1 527.28,167.707"/>
	<polygon fill="black" stroke-width="1" points="76.72,167.707 85.6,170.892 83.474,161.12"/>
	<text x="297.5" y="134.5" font-family="Times New Roman" font-size="20">a</text>
	<path stroke="black" stroke-width="1" fill="none" d="M 77.171,304.071 A 1623.324,1623.324 0 0 1 526.829,304.071"/>
	<polygon fill="black" stroke-width="1" points="77.171,304.071 85.786,307.915 84.401,298.011"/>
	<text x="297.5" y="279.5" font-family="Times New Roman" font-size="20">a</text>
	<polygon stroke="black" stroke-width="1" points="247.5,481.5 370.5,481.5"/>
	<polygon fill="black" stroke-width="1" points="370.5,481.5 362.5,476.5 362.5,486.5"/>
	<text x="304.5" y="502.5" font-family="Times New Roman" font-size="20">a</text>
	<polygon stroke="black" stroke-width="1" points="430.028,476.2 526.972,458.8"/>
	<polygon fill="black" stroke-width="1" points="526.972,458.8 518.214,455.292 519.981,465.135"/>
	<text x="469.5" y="457.5" font-family="Times New Roman" font-size="20">a</text>
	<path stroke="black" stroke-width="1" fill="none" d="M 76.631,446.336 A 1004.844,1004.844 0 0 1 527.369,446.336"/>
	<polygon fill="black" stroke-width="1" points="76.631,446.336 85.549,449.414 83.306,439.669"/>
	<text x="297.5" y="411.5" font-family="Times New Roman" font-size="20">a</text>
	<path stroke="black" stroke-width="1" fill="none" d="M 586.359,44.298 A 22.5,22.5 0 1 1 575.616,68.469"/>
	<text x="625.5" y="88.5" font-family="Times New Roman" font-size="20">cde</text>
	<polygon fill="black" stroke-width="1" points="575.616,68.469 575.292,77.897 583.949,72.891"/>
	<path stroke="black" stroke-width="1" fill="none" d="M 575.921,151.788 A 22.5,22.5 0 1 1 586.34,176.1"/>
	<text x="625.5" y="144.5" font-family="Times New Roman" font-size="20">cde</text>
	<polygon fill="black" stroke-width="1" points="586.34,176.1 593.033,182.748 595.249,172.997"/>
	<path stroke="black" stroke-width="1" fill="none" d="M 578.071,287.819 A 22.5,22.5 0 1 1 586.036,313.042"/>
	<text x="628.5" y="287.5" font-family="Times New Roman" font-size="20">cde</text>
	<polygon fill="black" stroke-width="1" points="586.036,313.042 592.039,320.319 595.208,310.835"/>
	<path stroke="black" stroke-width="1" fill="none" d="M 583.297,440.275 A 22.5,22.5 0 1 1 583.297,466.725"/>
	<text x="629.5" y="459.5" font-family="Times New Roman" font-size="20">cde</text>
	<polygon fill="black" stroke-width="1" points="583.297,466.725 586.83,475.473 592.708,467.382"/>
	<path stroke="black" stroke-width="1" fill="none" d="M 422.107,97.86 A 22.5,22.5 0 1 1 417.758,123.951"/>
	<text x="467.5" y="125.5" font-family="Times New Roman" font-size="20">cde</text>
	<polygon fill="black" stroke-width="1" points="417.758,123.951 419.805,133.16 426.933,126.146"/>
	<path stroke="black" stroke-width="1" fill="none" d="M 423.383,227.655 A 22.5,22.5 0 1 1 411.554,251.313"/>
	<text x="460.5" y="274.5" font-family="Times New Roman" font-size="20">cde</text>
	<polygon fill="black" stroke-width="1" points="411.554,251.313 410.802,260.717 419.677,256.11"/>
	<path stroke="black" stroke-width="1" fill="none" d="M 423.055,369.085 A 22.5,22.5 0 1 1 414.982,394.273"/>
	<text x="465.5" y="406.5" font-family="Times New Roman" font-size="20">cde</text>
	<polygon fill="black" stroke-width="1" points="414.982,394.273 415.677,403.682 423.743,397.771"/>
	<path stroke="black" stroke-width="1" fill="none" d="M 430.319,479.551 A 22.5,22.5 0 1 1 420.186,503.983"/>
	<text x="470.5" y="522.5" font-family="Times New Roman" font-size="20">cde</text>
	<polygon fill="black" stroke-width="1" points="420.186,503.983 420.098,513.416 428.627,508.195"/>
	<path stroke="black" stroke-width="1" fill="none" d="M 231.935,80.335 A 22.5,22.5 0 1 1 247.049,102.042"/>
	<text x="278.5" y="60.5" font-family="Times New Roman" font-size="20">cde</text>
	<polygon fill="black" stroke-width="1" points="247.049,102.042 254.946,107.202 255.148,97.204"/>
	<path stroke="black" stroke-width="1" fill="none" d="M 220.866,197.807 A 22.5,22.5 0 1 1 243.115,212.11"/>
	<text x="259.5" y="161.5" font-family="Times New Roman" font-size="20">cde</text>
	<polygon fill="black" stroke-width="1" points="243.115,212.11 252.384,213.869 248.757,204.549"/>
	<path stroke="black" stroke-width="1" fill="none" d="M 228.571,345.743 A 22.5,22.5 0 1 1 246.265,365.404"/>
	<text x="273.5" y="319.5" font-family="Times New Roman" font-size="20">cde</text>
	<polygon fill="black" stroke-width="1" points="246.265,365.404 254.743,369.542 253.7,359.597"/>
	<path stroke="black" stroke-width="1" fill="none" d="M 198.655,504.691 A 22.5,22.5 0 1 1 187.629,480.649"/>
	<text x="121.5" y="525.5" font-family="Times New Roman" font-size="20">cde</text>
	<polygon fill="black" stroke-width="1" points="187.629,480.649 180.771,474.17 178.801,483.974"/>
	<path stroke="black" stroke-width="1" fill="none" d="M 53.426,424.211 A 22.5,22.5 0 1 1 74.353,440.388"/>
	<text x="93.5" y="391.5" font-family="Times New Roman" font-size="20">cde</text>
	<polygon fill="black" stroke-width="1" points="74.353,440.388 83.434,442.943 80.629,433.344"/>
	<path stroke="black" stroke-width="1" fill="none" d="M 55.197,279.625 A 22.5,22.5 0 1 1 75.1,297.046"/>
	<text x="97.5" y="248.5" font-family="Times New Roman" font-size="20">cde</text>
	<polygon fill="black" stroke-width="1" points="75.1,297.046 84.01,300.148 81.793,290.397"/>
	<path stroke="black" stroke-width="1" fill="none" d="M 51.016,144.825 A 22.5,22.5 0 1 1 73.193,159.24"/>
	<text x="89.5" y="108.5" font-family="Times New Roman" font-size="20">cde</text>
	<polygon fill="black" stroke-width="1" points="73.193,159.24 82.452,161.045 78.873,151.707"/>
	<path stroke="black" stroke-width="1" fill="none" d="M 66.921,22.788 A 22.5,22.5 0 1 1 77.34,47.1"/>
	<text x="116.5" y="15.5" font-family="Times New Roman" font-size="20">cde</text>
	<polygon fill="black" stroke-width="1" points="77.34,47.1 84.033,53.748 86.249,43.997"/>
	<path stroke="black" stroke-width="1" fill="none" d="M 311.297,561.275 A 22.5,22.5 0 1 1 311.297,587.725"/>
	<text x="357.5" y="580.5" font-family="Times New Roman" font-size="20">abcde</text>
	<polygon fill="black" stroke-width="1" points="311.297,587.725 314.83,596.473 320.708,588.382"/>
</svg>
