<?xml version="1.0" standalone="no"?>
<!DOCTYPE svg PUBLIC "-//W3C//DTD SVG 1.1//EN" "http://www.w3.org/Graphics/SVG/1.1/DTD/svg11.dtd">

<svg width="800" height="600" version="1.1" xmlns="http://www.w3.org/2000/svg">
	<ellipse stroke="black" stroke-width="1" fill="none" cx="102.5" cy="99.5" rx="30" ry="30"/>
	<text x="98.5" y="105.5" font-family="Times New Roman" font-size="20">s</text>
	<ellipse stroke="black" stroke-width="1" fill="none" cx="316.5" cy="99.5" rx="30" ry="30"/>
	<text x="311.5" y="105.5" font-family="Times New Roman" font-size="20">1</text>
	<ellipse stroke="black" stroke-width="1" fill="none" cx="424.5" cy="221.5" rx="30" ry="30"/>
	<text x="419.5" y="227.5" font-family="Times New Roman" font-size="20">4</text>
	<ellipse stroke="black" stroke-width="1" fill="none" cx="98.5" cy="274.5" rx="30" ry="30"/>
	<text x="93.5" y="280.5" font-family="Times New Roman" font-size="20">2</text>
	<ellipse stroke="black" stroke-width="1" fill="none" cx="274.5" cy="296.5" rx="30" ry="30"/>
	<text x="269.5" y="302.5" font-family="Times New Roman" font-size="20">3</text>
	<polygon stroke="black" stroke-width="1" points="101.814,129.492 99.186,244.508"/>
	<polygon fill="black" stroke-width="1" points="99.186,244.508 104.367,236.624 94.37,236.396"/>
	<text x="86.5" y="192.5" font-family="Times New Roman" font-size="20">a</text>
	<path stroke="black" stroke-width="1" fill="none" d="M 128.812,85.149 A 196.559,196.559 0 0 1 290.188,85.149"/>
	<polygon fill="black" stroke-width="1" points="290.188,85.149 284.946,77.306 280.841,86.424"/>
	<text x="205.5" y="58.5" font-family="Times New Roman" font-size="20">&#949;</text>
	<path stroke="black" stroke-width="1" fill="none" d="M 287.106,105.474 A 463.722,463.722 0 0 1 131.894,105.474"/>
	<polygon fill="black" stroke-width="1" points="131.894,105.474 138.944,111.742 140.618,101.883"/>
	<text x="204.5" y="133.5" font-family="Times New Roman" font-size="20">b</text>
	<path stroke="black" stroke-width="1" fill="none" d="M 395.983,212.386 A 134.974,134.974 0 0 1 322.088,128.912"/>
	<polygon fill="black" stroke-width="1" points="395.983,212.386 390.721,204.556 386.639,213.685"/>
	<text x="335.5" y="199.5" font-family="Times New Roman" font-size="20">a</text>
	<path stroke="black" stroke-width="1" fill="none" d="M 345.303,107.642 A 128.367,128.367 0 0 1 419.912,191.922"/>
	<polygon fill="black" stroke-width="1" points="345.303,107.642 350.783,115.321 354.607,106.081"/>
	<text x="397.5" y="132.5" font-family="Times New Roman" font-size="20">a</text>
	<polygon stroke="black" stroke-width="1" points="397.667,234.916 301.333,283.084"/>
	<polygon fill="black" stroke-width="1" points="301.333,283.084 310.724,283.978 306.252,275.034"/>
	<text x="335.5" y="249.5" font-family="Times New Roman" font-size="20">&#949;</text>
	<polygon stroke="black" stroke-width="1" points="128.268,278.221 244.732,292.779"/>
	<polygon fill="black" stroke-width="1" points="244.732,292.779 237.414,286.825 236.173,296.748"/>
	<text x="179.5" y="307.5" font-family="Times New Roman" font-size="20">&#949;</text>
	<polygon stroke="black" stroke-width="1" points="121.895,255.72 293.105,118.28"/>
	<polygon fill="black" stroke-width="1" points="293.105,118.28 283.737,119.389 289.997,127.187"/>
	<text x="212.5" y="207.5" font-family="Times New Roman" font-size="20">b</text>
	<polygon stroke="black" stroke-width="1" points="310.245,128.841 280.755,267.159"/>
	<polygon fill="black" stroke-width="1" points="280.755,267.159 287.314,260.378 277.533,258.293"/>
	<text x="278.5" y="200.5" font-family="Times New Roman" font-size="20">b</text>
</svg>
